…
    ## Warning in read_fun(path = path, sheet = sheet, limits = limits, shim =
    ## shim, : Expecting logical in AES2247 / R2247C825: got '�쒓낏�꾩썝�앺솢'

    ## Warning in read_fun(path = path, sheet = sheet, limits = limits, shim =
    ## shim, : Expecting logical in AES2257 / R2257C825: got '�쒓낏�꾩썝�앺솢'

``` r
### 데이터 준비
df <- rename(df, rank=B14, family=fam_t, after=F16, life=D1)

df <- df %>% select(rank,family,after,life) 
df
```

    ## # A tibble: 3,019 x 4
    ##     rank family after  life
    ##    <dbl>  <dbl> <dbl> <dbl>
    ##  1    4.     2.    2.    4.
    ##  2    3.     2.    4.    4.
    ##  3    4.     2.    1.    4.
    ##  4    3.     2.    1.    3.
    ##  5    4.     2.    4.    3.
    ##  6    4.     1.    1.    3.
    ##  7    4.     2.    2.    3.
    ##  8    5.     2.    4.    2.
    ##  9    4.     2.    1.    3.
    ## 10    4.     2.    1.    3.
    ## # ... with 3,009 more rows
…
### 분석-(3) 가족생활만족도 - 노년기희망거주상태

``` r
### 가족생활만족도에 따른 노년기 희망거주상태

khome_happy <- df %>% 
  filter(!is.na(happy)& !is.na(khome)) %>%
  group_by(happy,khome) %>% 
  summarise(n=n()) %>% 
  arrange(happy)
khome_happy
```

    ## # A tibble: 27 x 3
    ## # Groups:   happy [5]
    ##    happy        khome            n
    ##    <chr>        <chr>        <int>
    ##  1 대체로만족   마음맞는       299
    ##  2 대체로만족   부부만         405
    ##  3 대체로만족   시골전원생활     2
    ##  4 대체로만족   실버타운       183
    ##  5 대체로만족   자녀가까이     141
    ##  6 대체로만족   자녀와동거      23
    ##  7 대체로불만족 마음맞는        59
    ##  8 대체로불만족 부부만          51
    ##  9 대체로불만족 실버타운        34
    ## 10 대체로불만족 자녀가까이      19
    ## # ... with 17 more rows
…
